alu.log
# vsim -vopt top -voptargs="+acc=npr" -l alu.log -c -do "add wave -r /*;  run -all;quit;" -wlf waveform.wlf "+UVM_TESTNAME=alu_incr_dec_test" 
# Start time: 15:07:43 on Sep 13,2024
# ** Note: (vsim-8009) Loading existing optimized design _opt1
# //  Questa Sim
# //  Version 10.6c linux Jul 25 2017
# //
# //  Copyright 1991-2017 Mentor Graphics Corporation
# //  All Rights Reserved.
# //
# //  QuestaSim and its associated documentation contain trade
# //  secrets and commercial or financial information that are the property of
# //  Mentor Graphics Corporation and are privileged, confidential,
# //  and exempt from disclosure under the Freedom of Information Act,
# //  5 U.S.C. Section 552. Furthermore, this information
# //  is prohibited from disclosure under the Trade Secrets Act,
# //  18 U.S.C. Section 1905.
# //
# Loading sv_std.std
# Loading work.intf(fast)
# Loading mtiUvm.uvm_pkg
# Loading work.globals(fast)
# Loading work.tb_pkg(fast)
# Loading work.top(fast)
# Loading work.alu_interface_sv_unit(fast)
# Loading work.intf(fast)
# Loading work.ALU_DESIGN(fast)
# Loading mtiUvm.questa_uvm_pkg(fast)
# ** Warning: (vsim-3015) top.sv(21): [PCDPC] - Port size (8) does not match connection size (9) for port 'OPA'. The port definition is at: design.sv(1).
#    Time: 0 ns  Iteration: 0  Instance: /top/dut File: design.sv
# ** Warning: (vsim-3015) top.sv(21): [PCDPC] - Port size (8) does not match connection size (9) for port 'OPB'. The port definition is at: design.sv(1).
#    Time: 0 ns  Iteration: 0  Instance: /top/dut File: design.sv
# ** Warning: (vsim-3015) top.sv(21): [PCDPC] - Port size (4) does not match connection size (5) for port 'CMD'. The port definition is at: design.sv(1).
#    Time: 0 ns  Iteration: 0  Instance: /top/dut File: design.sv
# Loading /tools/mentor/questasim_10.6c/questasim/uvm-1.1d/linux/uvm_dpi.so
# add wave -r /*
#   run -all
# ----------------------------------------------------------------
# UVM-1.1d
# (C) 2007-2013 Mentor Graphics Corporation
# (C) 2007-2013 Cadence Design Systems, Inc.
# (C) 2006-2013 Synopsys, Inc.
# (C) 2011-2013 Cypress Semiconductor Corp.
# ----------------------------------------------------------------
# 
#   ***********       IMPORTANT RELEASE NOTES         ************
# 
#   You are using a version of the UVM library that has been compiled
#   with `UVM_NO_DEPRECATED undefined.
#   See http://www.eda.org/svdb/view.php?id=3313 for more details.
# 
#   You are using a version of the UVM library that has been compiled
#   with `UVM_OBJECT_MUST_HAVE_CONSTRUCTOR undefined.
#   See http://www.eda.org/svdb/view.php?id=3770 for more details.
# 
#       (Specify +UVM_NO_RELNOTES to turn off this notice)
# 
# UVM_INFO verilog_src/questa_uvm_pkg-1.2/src/questa_uvm_pkg.sv(215) @ 0: reporter [Questa UVM] QUESTA_UVM-1.2.3
# UVM_INFO verilog_src/questa_uvm_pkg-1.2/src/questa_uvm_pkg.sv(217) @ 0: reporter [Questa UVM]  questa_uvm::init(+struct)
# Top
# UVM_INFO @ 0: reporter [RNTST] Running test alu_incr_dec_test...
# UVM_INFO alu_inc_dec_test.sv(15) @ 0: uvm_test_top [uvm_test_top] start of run phase
# UVM_INFO driver.sv(25) @ 0: uvm_test_top.env_h.agent_a_h.drv_h [uvm_test_top.env_h.agent_a_h.drv_h] start of drv run phase
# UVM_INFO sequence.sv(86) @ 0: uvm_test_top.env_h.agent_a_h.seqr_h@@inc_dec_op_seq_h [uvm_test_top.env_h.agent_a_h.seqr_h.inc_dec_op_seq_h] start of inc_dec_seq run phase
# UVM_INFO alu_passive_mon.sv(169) @ 5: uvm_test_top.env_h.agent_p_h.mon_pass_h [alu_monitor] 5opa=x,opb=x,res=z, cout=z, cmd=x,mode=x,cin=x, inp_valid=xce=x
# UVM_INFO alu_passive_mon.sv(169) @ 15: uvm_test_top.env_h.agent_p_h.mon_pass_h [alu_monitor] 5opa=x,opb=x,res=z, cout=z, cmd=x,mode=x,cin=x, inp_valid=xce=x
# UVM_INFO driver.sv(70) @ 15: uvm_test_top.env_h.agent_a_h.drv_h [alu_driver] opa=232,opb=157,cmd=7,mode=1,cin=1,inp_valid=0
# UVM_INFO driver.sv(70) @ 25: uvm_test_top.env_h.agent_a_h.drv_h [alu_driver] opa=27,opb=18,cmd=6,mode=1,cin=1,inp_valid=2
# UVM_INFO alu_passive_mon.sv(90) @ 25: uvm_test_top.env_h.agent_p_h.mon_pass_h [alu_monitor] 3opa=232,opb=157,res=z,cout=z,oflow=z,g=z,e=z,l=z,err=z, cmd=7,mode=1, cin=1, inp_valid=0
# UVM_INFO driver.sv(70) @ 35: uvm_test_top.env_h.agent_a_h.drv_h [alu_driver] opa=26,opb=92,cmd=5,mode=1,cin=1,inp_valid=0
# UVM_INFO alu_passive_mon.sv(90) @ 35: uvm_test_top.env_h.agent_p_h.mon_pass_h [alu_monitor] 3opa=27,opb=18,res=0,cout=0,oflow=z,g=z,e=z,l=z,err=z, cmd=6,mode=1, cin=1, inp_valid=2
# UVM_INFO scoreboard.sv(92) @ 35: uvm_test_top.env_h.scoreboard_h [scoreboard] 3opa=27,opb=18,res=19,cmd=6,mode=1, cin=1, inp_valid=2
# UVM_INFO driver.sv(70) @ 45: uvm_test_top.env_h.agent_a_h.drv_h [alu_driver] opa=239,opb=137,cmd=6,mode=1,cin=1,inp_valid=0
# UVM_INFO alu_passive_mon.sv(90) @ 45: uvm_test_top.env_h.agent_p_h.mon_pass_h [alu_monitor] 3opa=26,opb=92,res=0,cout=0,oflow=z,g=z,e=z,l=z,err=z, cmd=5,mode=1, cin=1, inp_valid=0
# UVM_INFO driver.sv(70) @ 55: uvm_test_top.env_h.agent_a_h.drv_h [alu_driver] opa=135,opb=87,cmd=7,mode=1,cin=0,inp_valid=2
# UVM_INFO alu_passive_mon.sv(90) @ 55: uvm_test_top.env_h.agent_p_h.mon_pass_h [alu_monitor] 3opa=239,opb=137,res=17,cout=z,oflow=z,g=z,e=z,l=z,err=z, cmd=6,mode=1, cin=1, inp_valid=0
# UVM_INFO driver.sv(70) @ 65: uvm_test_top.env_h.agent_a_h.drv_h [alu_driver] opa=201,opb=33,cmd=7,mode=1,cin=1,inp_valid=1
# UVM_INFO scoreboard.sv(92) @ 65: uvm_test_top.env_h.scoreboard_h [scoreboard] 3opa=135,opb=87,res=86,cmd=7,mode=1, cin=0, inp_valid=2
# UVM_INFO alu_passive_mon.sv(90) @ 65: uvm_test_top.env_h.agent_p_h.mon_pass_h [alu_monitor] 3opa=135,opb=87,res=0,cout=0,oflow=z,g=z,e=z,l=z,err=z, cmd=7,mode=1, cin=0, inp_valid=2
# UVM_INFO driver.sv(70) @ 75: uvm_test_top.env_h.agent_a_h.drv_h [alu_driver] opa=201,opb=196,cmd=6,mode=1,cin=0,inp_valid=0
# UVM_INFO alu_passive_mon.sv(90) @ 75: uvm_test_top.env_h.agent_p_h.mon_pass_h [alu_monitor] 3opa=201,opb=33,res=0,cout=0,oflow=z,g=z,e=z,l=z,err=z, cmd=7,mode=1, cin=1, inp_valid=1
# UVM_INFO driver.sv(70) @ 85: uvm_test_top.env_h.agent_a_h.drv_h [alu_driver] opa=254,opb=163,cmd=7,mode=1,cin=0,inp_valid=0
# UVM_INFO alu_passive_mon.sv(90) @ 85: uvm_test_top.env_h.agent_p_h.mon_pass_h [alu_monitor] 3opa=201,opb=196,res=88,cout=z,oflow=z,g=z,e=z,l=z,err=z, cmd=6,mode=1, cin=0, inp_valid=0
# UVM_INFO driver.sv(70) @ 95: uvm_test_top.env_h.agent_a_h.drv_h [alu_driver] opa=225,opb=200,cmd=4,mode=1,cin=0,inp_valid=1
# UVM_INFO alu_passive_mon.sv(90) @ 95: uvm_test_top.env_h.agent_p_h.mon_pass_h [alu_monitor] 3opa=254,opb=163,res=88,cout=z,oflow=z,g=z,e=z,l=z,err=z, cmd=7,mode=1, cin=0, inp_valid=0
# UVM_INFO driver.sv(70) @ 105: uvm_test_top.env_h.agent_a_h.drv_h [alu_driver] opa=225,opb=153,cmd=6,mode=1,cin=0,inp_valid=1
# UVM_INFO scoreboard.sv(70) @ 105: uvm_test_top.env_h.scoreboard_h [scoreboard] 1opa=225,opb=200,res=226,cmd=4,mode=1,cin=0, inp_valid=1
# UVM_INFO alu_passive_mon.sv(90) @ 105: uvm_test_top.env_h.agent_p_h.mon_pass_h [alu_monitor] 3opa=225,opb=200,res=0,cout=0,oflow=z,g=z,e=z,l=z,err=z, cmd=4,mode=1, cin=0, inp_valid=1
# UVM_INFO alu_passive_mon.sv(90) @ 115: uvm_test_top.env_h.agent_p_h.mon_pass_h [alu_monitor] 3opa=225,opb=153,res=0,cout=0,oflow=z,g=z,e=z,l=z,err=z, cmd=6,mode=1, cin=0, inp_valid=1
# UVM_INFO alu_passive_mon.sv(90) @ 125: uvm_test_top.env_h.agent_p_h.mon_pass_h [alu_monitor] 3opa=225,opb=153,res=225,cout=z,oflow=z,g=z,e=z,l=z,err=z, cmd=6,mode=1, cin=0, inp_valid=1
# UVM_INFO alu_passive_mon.sv(90) @ 135: uvm_test_top.env_h.agent_p_h.mon_pass_h [alu_monitor] 3opa=225,opb=153,res=511,cout=z,oflow=z,g=z,e=z,l=z,err=z, cmd=6,mode=1, cin=0, inp_valid=1
# UVM_INFO alu_passive_mon.sv(90) @ 145: uvm_test_top.env_h.agent_p_h.mon_pass_h [alu_monitor] 3opa=225,opb=153,res=511,cout=z,oflow=z,g=z,e=z,l=z,err=z, cmd=6,mode=1, cin=0, inp_valid=1
# UVM_INFO alu_inc_dec_test.sv(22) @ 155: uvm_test_top [uvm_test_top] end of run phase
# UVM_INFO alu_passive_mon.sv(90) @ 155: uvm_test_top.env_h.agent_p_h.mon_pass_h [alu_monitor] 3opa=225,opb=153,res=511,cout=z,oflow=z,g=z,e=z,l=z,err=z, cmd=6,mode=1, cin=0, inp_valid=1
# UVM_INFO verilog_src/uvm-1.1d/src/base/uvm_objection.svh(1268) @ 155: reporter [TEST_DONE] 'run' phase is ready to proceed to the 'extract' phase
# UVM_ERROR scoreboard.sv(308) @ 155: uvm_test_top.env_h.scoreboard_h [scoreboard] Fail matched expected_res=226,actual_res=511
# 
# --- UVM Report Summary ---
# 
# ** Report counts by severity
# UVM_INFO :   37
# UVM_WARNING :    0
# UVM_ERROR :    1
# UVM_FATAL :    0
# ** Report counts by id
# [Questa UVM]     2
# [RNTST]     1
# [TEST_DONE]     1
# [alu_driver]    10
# [alu_monitor]    16
# [scoreboard]     4
# [uvm_test_top]     2
# [uvm_test_top.env_h.agent_a_h.drv_h]     1
# [uvm_test_top.env_h.agent_a_h.seqr_h.inc_dec_op_seq_h]     1
# ** Note: $finish    : /tools/mentor/questasim_10.6c/questasim/linux/../verilog_src/uvm-1.1d/src/base/uvm_root.svh(430)
#    Time: 155 ns  Iteration: 54  Instance: /top
# End time: 15:07:45 on Sep 13,2024, Elapsed time: 0:00:02
# Errors: 0, Warnings: 3
