alu_add_test.log
# vsim -vopt work.top -voptargs="+acc=npr" -l alu_add_test.log -coverage -c -do "log -r /*; coverage save -onexit -directive -cvg -codeAll coverage.ucdb; run -all;quit;" "+UVM_TESTNAME=alu_add_test" 
# Start time: 15:51:26 on Oct 01,2024
# ** Note: (vsim-3812) Design is being optimized...
# //  Questa Sim
# //  Version 10.6c linux Jul 25 2017
# //
# //  Copyright 1991-2017 Mentor Graphics Corporation
# //  All Rights Reserved.
# //
# //  QuestaSim and its associated documentation contain trade
# //  secrets and commercial or financial information that are the property of
# //  Mentor Graphics Corporation and are privileged, confidential,
# //  and exempt from disclosure under the Freedom of Information Act,
# //  5 U.S.C. Section 552. Furthermore, this information
# //  is prohibited from disclosure under the Trade Secrets Act,
# //  18 U.S.C. Section 1905.
# //
# End time: 15:57:17 on Oct 01,2024, Elapsed time: 0:26:58
# Errors: 0, Warnings: 0
rk.globals(fast)
# Loading work.tb_pkg(fast)
# Loading work.top(fast)
# Loading work.alu_interface_sv_unit(fast)
# Loading work.intf(fast)
# Loading work.alu_assertion_sv_unit(fast)
# Loading work.assertions(fast)
# Loading work.ALU_DESIGN(fast)
# Loading mtiUvm.questa_uvm_pkg(fast)
# ** Warning: (vsim-3015) top.sv(21): [PCDPC] - Port size (8) does not match connection size (9) for port 'OPA'. The port definition is at: design.sv(1).
#    Time: 0 ns  Iteration: 0  Instance: /top/dut File: design.sv
# ** Warning: (vsim-3015) top.sv(21): [PCDPC] - Port size (8) does not match connection size (9) for port 'OPB'. The port definition is at: design.sv(1).
#    Time: 0 ns  Iteration: 0  Instance: /top/dut File: design.sv
# ** Warning: (vsim-3015) top.sv(21): [PCDPC] - Port size (4) does not match connection size (5) for port 'CMD'. The port definition is at: design.sv(1).
#    Time: 0 ns  Iteration: 0  Instance: /top/dut File: design.sv
# Loading /tools/mentor/questasim_10.6c/questasim/uvm-1.1d/linux/uvm_dpi.so
# log -r /*
#  coverage save -onexit -directive -cvg -codeAll coverage.ucdb
#  run -all
# ----------------------------------------------------------------
# UVM-1.1d
# (C) 2007-2013 Mentor Graphics Corporation
# (C) 2007-2013 Cadence Design Systems, Inc.
# (C) 2006-2013 Synopsys, Inc.
# (C) 2011-2013 Cypress Semiconductor Corp.
# ----------------------------------------------------------------
# 
#   ***********       IMPORTANT RELEASE NOTES         ************
# 
#   You are using a version of the UVM library that has been compiled
#   with `UVM_NO_DEPRECATED undefined.
#   See http://www.eda.org/svdb/view.php?id=3313 for more details.
# 
#   You are using a version of the UVM library that has been compiled
#   with `UVM_OBJECT_MUST_HAVE_CONSTRUCTOR undefined.
#   See http://www.eda.org/svdb/view.php?id=3770 for more details.
# 
#       (Specify +UVM_NO_RELNOTES to turn off this notice)
# 
# UVM_INFO verilog_src/questa_uvm_pkg-1.2/src/questa_uvm_pkg.sv(215) @ 0: reporter [Questa UVM] QUESTA_UVM-1.2.3
# UVM_INFO verilog_src/questa_uvm_pkg-1.2/src/questa_uvm_pkg.sv(217) @ 0: reporter [Questa UVM]  questa_uvm::init(+struct)
# Top
# UVM_INFO alu_assertion.sv(25) @ 0: reporter [ALU assertions] time=0 ALU Assertions run started
# UVM_INFO @ 0: reporter [RNTST] Running test alu_add_test...
# UVM_INFO alu_add_test.sv(15) @ 0: uvm_test_top [uvm_test_top] start of run phase
# UVM_INFO driver.sv(25) @ 0: uvm_test_top.env_h.agent_a_h.drv_h [uvm_test_top.env_h.agent_a_h.drv_h] start of drv run phase
# UVM_INFO sequence.sv(13) @ 0: uvm_test_top.env_h.agent_a_h.seqr_h@@add_op_seq_h [uvm_test_top.env_h.agent_a_h.seqr_h.add_op_seq_h] start of add_seq run phase
# UVM_INFO alu_passive_mon.sv(169) @ 5: uvm_test_top.env_h.agent_p_h.mon_pass_h [alu_monitor] 5opa=x,opb=x,res=z, cout=z, cmd=x,mode=x,cin=x, inp_valid=xce=x
# UVM_INFO alu_passive_mon.sv(169) @ 15: uvm_test_top.env_h.agent_p_h.mon_pass_h [alu_monitor] 5opa=x,opb=x,res=z, cout=z, cmd=x,mode=x,cin=x, inp_valid=xce=x
# UVM_INFO driver.sv(70) @ 15: uvm_test_top.env_h.agent_a_h.drv_h [alu_driver] opa=250,opb=45,cmd=0,mode=1,cin=0,inp_valid=3
# UVM_INFO driver.sv(70) @ 25: uvm_test_top.env_h.agent_a_h.drv_h [alu_driver] opa=236,opb=209,cmd=0,mode=1,cin=0,inp_valid=3
# UVM_INFO scoreboard.sv(101) @ 25: uvm_test_top.env_h.scoreboard_h [scoreboard] 4opa=250,opb=45,res=295, cout=0,cmd=0,mode=1, cin=0, inp_valid=3
# UVM_INFO alu_passive_mon.sv(90) @ 25: uvm_test_top.env_h.agent_p_h.mon_pass_h [alu_monitor] 3opa=250,opb=45,res=z,cout=z,oflow=z,g=z,e=z,l=z,err=z, cmd=0,mode=1, cin=0, inp_valid=3
# UVM_INFO driver.sv(70) @ 35: uvm_test_top.env_h.agent_a_h.drv_h [alu_driver] opa=95,opb=77,cmd=0,mode=1,cin=0,inp_valid=3
# UVM_INFO alu_passive_mon.sv(90) @ 35: uvm_test_top.env_h.agent_p_h.mon_pass_h [alu_monitor] 3opa=236,opb=209,res=0,cout=0,oflow=z,g=z,e=z,l=z,err=z, cmd=0,mode=1, cin=0, inp_valid=3
# UVM_INFO scoreboard.sv(101) @ 35: uvm_test_top.env_h.scoreboard_h [scoreboard] 4opa=236,opb=209,res=445, cout=0,cmd=0,mode=1, cin=0, inp_valid=3
# ** Info: output result checking assertion success
#    Time: 35 ns Started: 25 ns  Scope: top.vif.ASSERTINS_PROP.res_checking File: alu_assertion.sv Line: 33
# UVM_INFO driver.sv(70) @ 45: uvm_test_top.env_h.agent_a_h.drv_h [alu_driver] opa=88,opb=107,cmd=0,mode=1,cin=0,inp_valid=3
# UVM_INFO scoreboard.sv(101) @ 45: uvm_test_top.env_h.scoreboard_h [scoreboard] 4opa=95,opb=77,res=172, cout=0,cmd=0,mode=1, cin=0, inp_valid=3
# UVM_INFO alu_passive_mon.sv(90) @ 45: uvm_test_top.env_h.agent_p_h.mon_pass_h [alu_monitor] 3opa=95,opb=77,res=295,cout=1,oflow=z,g=z,e=z,l=z,err=z, cmd=0,mode=1, cin=0, inp_valid=3
# ** Info: output result checking assertion success
#    Time: 45 ns Started: 35 ns  Scope: top.vif.ASSERTINS_PROP.res_checking File: alu_assertion.sv Line: 33
# UVM_INFO driver.sv(70) @ 55: uvm_test_top.env_h.agent_a_h.drv_h [alu_driver] opa=150,opb=176,cmd=0,mode=1,cin=0,inp_valid=3
# UVM_INFO alu_passive_mon.sv(90) @ 55: uvm_test_top.env_h.agent_p_h.mon_pass_h [alu_monitor] 3opa=88,opb=107,res=445,cout=1,oflow=z,g=z,e=z,l=z,err=z, cmd=0,mode=1, cin=0, inp_valid=3
# UVM_INFO scoreboard.sv(101) @ 55: uvm_test_top.env_h.scoreboard_h [scoreboard] 4opa=88,opb=107,res=195, cout=0,cmd=0,mode=1, cin=0, inp_valid=3
# ** Info: output result checking assertion success
#    Time: 55 ns Started: 45 ns  Scope: top.vif.ASSERTINS_PROP.res_checking File: alu_assertion.sv Line: 33
# UVM_INFO driver.sv(70) @ 65: uvm_test_top.env_h.agent_a_h.drv_h [alu_driver] opa=71,opb=246,cmd=0,mode=1,cin=0,inp_valid=3
# UVM_INFO scoreboard.sv(101) @ 65: uvm_test_top.env_h.scoreboard_h [scoreboard] 4opa=150,opb=176,res=326, cout=0,cmd=0,mode=1, cin=0, inp_valid=3
# UVM_INFO alu_passive_mon.sv(90) @ 65: uvm_test_top.env_h.agent_p_h.mon_pass_h [alu_monitor] 3opa=150,opb=176,res=172,cout=0,oflow=z,g=z,e=z,l=z,err=z, cmd=0,mode=1, cin=0, inp_valid=3
# ** Info: output result checking assertion success
#    Time: 65 ns Started: 55 ns  Scope: top.vif.ASSERTINS_PROP.res_checking File: alu_assertion.sv Line: 33
# UVM_INFO driver.sv(70) @ 75: uvm_test_top.env_h.agent_a_h.drv_h [alu_driver] opa=247,opb=234,cmd=0,mode=1,cin=1,inp_valid=3
# UVM_INFO alu_passive_mon.sv(90) @ 75: uvm_test_top.env_h.agent_p_h.mon_pass_h [alu_monitor] 3opa=71,opb=246,res=195,cout=0,oflow=z,g=z,e=z,l=z,err=z, cmd=0,mode=1, cin=0, inp_valid=3
# UVM_INFO scoreboard.sv(101) @ 75: uvm_test_top.env_h.scoreboard_h [scoreboard] 4opa=71,opb=246,res=317, cout=0,cmd=0,mode=1, cin=0, inp_valid=3
# ** Info: output result checking assertion success
#    Time: 75 ns Started: 65 ns  Scope: top.vif.ASSERTINS_PROP.res_checking File: alu_assertion.sv Line: 33
# UVM_INFO driver.sv(70) @ 85: uvm_test_top.env_h.agent_a_h.drv_h [alu_driver] opa=104,opb=165,cmd=2,mode=1,cin=0,inp_valid=3
# UVM_INFO scoreboard.sv(101) @ 85: uvm_test_top.env_h.scoreboard_h [scoreboard] 4opa=247,opb=234,res=481, cout=0,cmd=0,mode=1, cin=1, inp_valid=3
# UVM_INFO alu_passive_mon.sv(90) @ 85: uvm_test_top.env_h.agent_p_h.mon_pass_h [alu_monitor] 3opa=247,opb=234,res=326,cout=1,oflow=z,g=z,e=z,l=z,err=z, cmd=0,mode=1, cin=1, inp_valid=3
# ** Info: output result checking assertion success
#    Time: 85 ns Started: 75 ns  Scope: top.vif.ASSERTINS_PROP.res_checking File: alu_assertion.sv Line: 33
# UVM_INFO driver.sv(70) @ 95: uvm_test_top.env_h.agent_a_h.drv_h [alu_driver] opa=144,opb=135,cmd=0,mode=1,cin=0,inp_valid=3
# UVM_INFO alu_passive_mon.sv(90) @ 95: uvm_test_top.env_h.agent_p_h.mon_pass_h [alu_monitor] 3opa=104,opb=165,res=317,cout=1,oflow=z,g=z,e=z,l=z,err=z, cmd=2,mode=1, cin=0, inp_valid=3
# UVM_INFO scoreboard.sv(114) @ 95: uvm_test_top.env_h.scoreboard_h [scoreboard] 6opa=104,opb=165,res=269,cout=0,cmd=2,mode=1, cin=0, inp_valid=3
# ** Info: output result checking assertion success
#    Time: 95 ns Started: 85 ns  Scope: top.vif.ASSERTINS_PROP.res_checking File: alu_assertion.sv Line: 33
# UVM_INFO driver.sv(70) @ 105: uvm_test_top.env_h.agent_a_h.drv_h [alu_driver] opa=255,opb=36,cmd=0,mode=1,cin=1,inp_valid=3
# UVM_INFO scoreboard.sv(101) @ 105: uvm_test_top.env_h.scoreboard_h [scoreboard] 4opa=144,opb=135,res=279, cout=0,cmd=0,mode=1, cin=0, inp_valid=3
# UVM_INFO alu_passive_mon.sv(90) @ 105: uvm_test_top.env_h.agent_p_h.mon_pass_h [alu_monitor] 3opa=144,opb=135,res=481,cout=1,oflow=z,g=z,e=z,l=z,err=z, cmd=0,mode=1, cin=0, inp_valid=3
# ** Info: output result checking assertion success
#    Time: 105 ns Started: 95 ns  Scope: top.vif.ASSERTINS_PROP.res_checking File: alu_assertion.sv Line: 33
# UVM_INFO alu_passive_mon.sv(90) @ 115: uvm_test_top.env_h.agent_p_h.mon_pass_h [alu_monitor] 3opa=255,opb=36,res=269,cout=1,oflow=z,g=z,e=z,l=z,err=z, cmd=0,mode=1, cin=1, inp_valid=3
# UVM_INFO scoreboard.sv(101) @ 115: uvm_test_top.env_h.scoreboard_h [scoreboard] 4opa=255,opb=36,res=291, cout=0,cmd=0,mode=1, cin=1, inp_valid=3
# ** Info: output result checking assertion success
#    Time: 115 ns Started: 105 ns  Scope: top.vif.ASSERTINS_PROP.res_checking File: alu_assertion.sv Line: 33
# UVM_INFO scoreboard.sv(101) @ 125: uvm_test_top.env_h.scoreboard_h [scoreboard] 4opa=255,opb=36,res=291, cout=0,cmd=0,mode=1, cin=1, inp_valid=3
# UVM_INFO alu_passive_mon.sv(90) @ 125: uvm_test_top.env_h.agent_p_h.mon_pass_h [alu_monitor] 3opa=255,opb=36,res=279,cout=1,oflow=z,g=z,e=z,l=z,err=z, cmd=0,mode=1, cin=1, inp_valid=3
# ** Info: output result checking assertion success
#    Time: 125 ns Started: 115 ns  Scope: top.vif.ASSERTINS_PROP.res_checking File: alu_assertion.sv Line: 33
# UVM_INFO alu_passive_mon.sv(90) @ 135: uvm_test_top.env_h.agent_p_h.mon_pass_h [alu_monitor] 3opa=255,opb=36,res=291,cout=1,oflow=z,g=z,e=z,l=z,err=z, cmd=0,mode=1, cin=1, inp_valid=3
# UVM_INFO scoreboard.sv(101) @ 135: uvm_test_top.env_h.scoreboard_h [scoreboard] 4opa=255,opb=36,res=291, cout=0,cmd=0,mode=1, cin=1, inp_valid=3
# ** Info: output result checking assertion success
#    Time: 135 ns Started: 125 ns  Scope: top.vif.ASSERTINS_PROP.res_checking File: alu_assertion.sv Line: 33
# UVM_INFO scoreboard.sv(101) @ 145: uvm_test_top.env_h.scoreboard_h [scoreboard] 4opa=255,opb=36,res=291, cout=0,cmd=0,mode=1, cin=1, inp_valid=3
# UVM_INFO alu_passive_mon.sv(90) @ 145: uvm_test_top.env_h.agent_p_h.mon_pass_h [alu_monitor] 3opa=255,opb=36,res=291,cout=1,oflow=z,g=z,e=z,l=z,err=z, cmd=0,mode=1, cin=1, inp_valid=3
# ** Info: output result checking assertion success
#    Time: 145 ns Started: 135 ns  Scope: top.vif.ASSERTINS_PROP.res_checking File: alu_assertion.sv Line: 33
# UVM_INFO alu_add_test.sv(22) @ 155: uvm_test_top [uvm_test_top] end of run phase
# UVM_INFO alu_passive_mon.sv(90) @ 155: uvm_test_top.env_h.agent_p_h.mon_pass_h [alu_monitor] 3opa=255,opb=36,res=291,cout=1,oflow=z,g=z,e=z,l=z,err=z, cmd=0,mode=1, cin=1, inp_valid=3
# UVM_INFO scoreboard.sv(101) @ 155: uvm_test_top.env_h.scoreboard_h [scoreboard] 4opa=255,opb=36,res=291, cout=0,cmd=0,mode=1, cin=1, inp_valid=3
# UVM_INFO verilog_src/uvm-1.1d/src/base/uvm_objection.svh(1268) @ 155: reporter [TEST_DONE] 'run' phase is ready to proceed to the 'extract' phase
# UVM_INFO scoreboard.sv(306) @ 155: uvm_test_top.env_h.scoreboard_h [scoreboard] result matched expected_res=291,actual_res=291
# UVM_INFO coverage.sv(44) @ 155: uvm_test_top.env_h.cov_h [cov_h] Coverage=96.88 %
# 
# --- UVM Report Summary ---
# 
# ** Report counts by severity
# UVM_INFO :   51
# UVM_WARNING :    0
# UVM_ERROR :    0
# UVM_FATAL :    0
# ** Report counts by id
# [ALU assertions]     1
# [Questa UVM]     2
# [RNTST]     1
# [TEST_DONE]     1
# [alu_driver]    10
# [alu_monitor]    16
# [cov_h]     1
# [scoreboard]    15
# [uvm_test_top]     2
# [uvm_test_top.env_h.agent_a_h.drv_h]     1
# [uvm_test_top.env_h.agent_a_h.seqr_h.add_op_seq_h]     1
# ** Note: $finish    : /tools/mentor/questasim_10.6c/questasim/linux/../verilog_src/uvm-1.1d/src/base/uvm_root.svh(430)
#    Time: 155 ns  Iteration: 54  Instance: /top
# Saving coverage database on exit...
# End time: 15:51:38 on Oct 01,2024, Elapsed time: 0:00:12
# Errors: 0, Warnings: 3
