sim/alu_log_test_01102024-145547/alu_log_test.log
# vsim -vopt work.top -voptargs="+acc=npr" -assertdebug "+UVM_TESTNAME=alu_log_test" "+UVM_VERBOSITY=UVM_MEDIUM" -l alu_log_test_01102024-145547/alu_log_test.log -sva -coverage -c -do "log -r /*; add wave -r /*; coverage save -onexit -assert -directive -cvg -codeAll alu_log_test_01102024-145547/alu_log_test_01102024-145547_coverage.ucdb; run -all; exit" -wlf alu_log_test_01102024-145547/waveform.wlf 
# Start time: 14:55:48 on Oct 01,2024
# ** Note: (vsim-8009) Loading existing optimized design _opt
# //  Questa Sim
# //  Version 10.6c linux Jul 25 2017
# //
# //  Copyright 1991-2017 Mentor Graphics Corporation
# //  All Rights Reserved.
# //
# //  QuestaSim and its associated documentation contain trade
# //  secrets and commercial or financial information that are the property of
# //  Mentor Graphics Corporation and are privileged, confidential,
# //  and exempt from disclosure under the Freedom of Information Act,
# //  5 U.S.C. Section 552. Furthermore, this information
# //  is prohibited from disclosure under the Trade Secrets Act,
# //  18 U.S.C. Section 1905.
# //
# Loading sv_std.std
# Loading work.intf(fast)
# Loading mtiUvm.uvm_pkg
# Loading work.globals(fast)
# Loading work.tb_pkg(fast)
# Loading work.top_sv_unit(fast)
# Loading work.top(fast)
# Loading work.alu_interface_sv_unit(fast)
# Loading work.intf(fast)
# Loading work.assertions(fast)
# Loading work.ALU_DESIGN(fast)
# Loading mtiUvm.questa_uvm_pkg(fast)
# ** Warning: (vsim-3015) ../top.sv(21): [PCDPC] - Port size (8) does not match connection size (9) for port 'OPA'. The port definition is at: ../design.sv(1).
#    Time: 0 ns  Iteration: 0  Instance: /top/dut File: ../design.sv
# ** Warning: (vsim-3015) ../top.sv(21): [PCDPC] - Port size (8) does not match connection size (9) for port 'OPB'. The port definition is at: ../design.sv(1).
#    Time: 0 ns  Iteration: 0  Instance: /top/dut File: ../design.sv
# ** Warning: (vsim-3015) ../top.sv(21): [PCDPC] - Port size (4) does not match connection size (5) for port 'CMD'. The port definition is at: ../design.sv(1).
#    Time: 0 ns  Iteration: 0  Instance: /top/dut File: ../design.sv
# Loading /tools/mentor/questasim_10.6c/questasim/uvm-1.1d/linux/uvm_dpi.so
# log -r /*
#  add wave -r /*
#  coverage save -onexit -assert -directive -cvg -codeAll alu_log_test_01102024-145547/alu_log_test_01102024-145547_coverage.ucdb
#  run -all
# ----------------------------------------------------------------
# UVM-1.1d
# (C) 2007-2013 Mentor Graphics Corporation
# (C) 2007-2013 Cadence Design Systems, Inc.
# (C) 2006-2013 Synopsys, Inc.
# (C) 2011-2013 Cypress Semiconductor Corp.
# ----------------------------------------------------------------
# 
#   ***********       IMPORTANT RELEASE NOTES         ************
# 
#   You are using a version of the UVM library that has been compiled
#   with `UVM_NO_DEPRECATED undefined.
#   See http://www.eda.org/svdb/view.php?id=3313 for more details.
# 
#   You are using a version of the UVM library that has been compiled
#   with `UVM_OBJECT_MUST_HAVE_CONSTRUCTOR undefined.
#   See http://www.eda.org/svdb/view.php?id=3770 for more details.
# 
#       (Specify +UVM_NO_RELNOTES to turn off this notice)
# 
# UVM_INFO verilog_src/questa_uvm_pkg-1.2/src/questa_uvm_pkg.sv(215) @ 0: reporter [Questa UVM] QUESTA_UVM-1.2.3
# UVM_INFO verilog_src/questa_uvm_pkg-1.2/src/questa_uvm_pkg.sv(217) @ 0: reporter [Questa UVM]  questa_uvm::init(+struct)
# Top
# UVM_INFO ../assertion.sv(27) @ 0: reporter [ALU_Assertions] time=0 ALU Assertions run started 
# UVM_INFO @ 0: reporter [RNTST] Running test alu_log_test...
# UVM_INFO ../alu_logical_test.sv(15) @ 0: uvm_test_top [uvm_test_top] start of run phase
# UVM_INFO ../driver.sv(27) @ 0: uvm_test_top.env_h.agent_a_h.drv_h [uvm_test_top.env_h.agent_a_h.drv_h] start of drv run phase
# UVM_INFO ../sequence.sv(170) @ 0: uvm_test_top.env_h.agent_a_h.seqr_h@@log_op_seq_h [uvm_test_top.env_h.agent_a_h.seqr_h.log_op_seq_h] start of log_seq run phase
# UVM_INFO ../alu_passive_mon.sv(171) @ 5: uvm_test_top.env_h.agent_p_h.mon_pass_h [alu_monitor] 5opa=x,opb=x,res=z, cout=z, cmd=x,mode=x,cin=x, inp_valid=xce=x
# UVM_INFO ../alu_passive_mon.sv(171) @ 15: uvm_test_top.env_h.agent_p_h.mon_pass_h [alu_monitor] 5opa=x,opb=x,res=z, cout=z, cmd=x,mode=x,cin=x, inp_valid=xce=x
# UVM_INFO ../driver.sv(91) @ 25: uvm_test_top.env_h.agent_a_h.drv_h [alu_driver] opa=255,opb=180,cmd=0,mode=0,cin=0,inp_valid=1
# UVM_INFO ../alu_passive_mon.sv(171) @ 25: uvm_test_top.env_h.agent_p_h.mon_pass_h [alu_monitor] 5opa=x,opb=x,res=z, cout=z, cmd=x,mode=x,cin=x, inp_valid=xce=x
# UVM_INFO ../alu_passive_mon.sv(156) @ 35: uvm_test_top.env_h.agent_p_h.mon_pass_h [alu_monitor] 4opa=255,opb=180,res=z, cout=z, cmd=0,mode=0, cin=0, inp_valid=1
# UVM_ERROR ../sb.sv(313) @ 45: uvm_test_top.env_h.scoreboard_h [scoreboard] Fail matched expected_res=0,actual_res=0
# UVM_INFO ../alu_passive_mon.sv(156) @ 45: uvm_test_top.env_h.agent_p_h.mon_pass_h [alu_monitor] 4opa=255,opb=180,res=0, cout=z, cmd=0,mode=0, cin=0, inp_valid=1
# time=45 output assertion success 
# 
# UVM_INFO ../alu_passive_mon.sv(156) @ 55: uvm_test_top.env_h.agent_p_h.mon_pass_h [alu_monitor] 4opa=255,opb=180,res=0, cout=z, cmd=0,mode=0, cin=0, inp_valid=1
# UVM_INFO ../sb.sv(248) @ 55: uvm_test_top.env_h.scoreboard_h [scoreboard] 12 opa=11111111,opb=10110100,res=0,cmd=0,mode=0, cin=0, inp_valid=1
# UVM_INFO ../driver.sv(91) @ 55: uvm_test_top.env_h.agent_a_h.drv_h [alu_driver] opa=116,opb=179,cmd=1,mode=0,cin=0,inp_valid=2
# time=55 output assertion success 
# 
# UVM_INFO ../alu_passive_mon.sv(156) @ 65: uvm_test_top.env_h.agent_p_h.mon_pass_h [alu_monitor] 4opa=116,opb=179,res=0, cout=z, cmd=1,mode=0, cin=0, inp_valid=2
# time=65 output assertion success 
# 
# UVM_ERROR ../sb.sv(313) @ 75: uvm_test_top.env_h.scoreboard_h [scoreboard] Fail matched expected_res=0,actual_res=0
# UVM_INFO ../alu_passive_mon.sv(156) @ 75: uvm_test_top.env_h.agent_p_h.mon_pass_h [alu_monitor] 4opa=116,opb=179,res=0, cout=z, cmd=1,mode=0, cin=0, inp_valid=2
# time=75 output assertion success 
# 
# UVM_INFO ../alu_passive_mon.sv(156) @ 85: uvm_test_top.env_h.agent_p_h.mon_pass_h [alu_monitor] 4opa=116,opb=179,res=76, cout=z, cmd=1,mode=0, cin=0, inp_valid=2
# UVM_INFO ../sb.sv(255) @ 85: uvm_test_top.env_h.scoreboard_h [scoreboard] 13 opa=1110100,opb=10110011,res=0,cmd=1,mode=0, cin=0, inp_valid=2
# UVM_INFO ../driver.sv(91) @ 85: uvm_test_top.env_h.agent_a_h.drv_h [alu_driver] opa=124,opb=26,cmd=2,mode=0,cin=0,inp_valid=1
# time=85 output assertion success 
# 
# UVM_INFO ../alu_passive_mon.sv(156) @ 95: uvm_test_top.env_h.agent_p_h.mon_pass_h [alu_monitor] 4opa=124,opb=26,res=76, cout=z, cmd=2,mode=0, cin=0, inp_valid=1
# time=95 output assertion success 
# 
# UVM_ERROR ../sb.sv(302) @ 105: uvm_test_top.env_h.scoreboard_h [scoreboard] Fail matched expected_res=0,actual_res=76
# UVM_INFO ../alu_passive_mon.sv(156) @ 105: uvm_test_top.env_h.agent_p_h.mon_pass_h [alu_monitor] 4opa=124,opb=26,res=76, cout=z, cmd=2,mode=0, cin=0, inp_valid=1
# time=105 output assertion success 
# 
# UVM_INFO ../alu_passive_mon.sv(156) @ 115: uvm_test_top.env_h.agent_p_h.mon_pass_h [alu_monitor] 4opa=124,opb=26,res=1, cout=z, cmd=2,mode=0, cin=0, inp_valid=1
# UVM_INFO ../sb.sv(248) @ 115: uvm_test_top.env_h.scoreboard_h [scoreboard] 12 opa=1111100,opb=11010,res=0,cmd=2,mode=0, cin=0, inp_valid=1
# UVM_INFO ../driver.sv(91) @ 115: uvm_test_top.env_h.agent_a_h.drv_h [alu_driver] opa=111,opb=190,cmd=3,mode=0,cin=0,inp_valid=1
# time=115 output assertion success 
# 
# UVM_INFO ../alu_passive_mon.sv(156) @ 125: uvm_test_top.env_h.agent_p_h.mon_pass_h [alu_monitor] 4opa=111,opb=190,res=1, cout=z, cmd=3,mode=0, cin=0, inp_valid=1
# time=125 output assertion success 
# 
# UVM_ERROR ../sb.sv(302) @ 135: uvm_test_top.env_h.scoreboard_h [scoreboard] Fail matched expected_res=0,actual_res=1
# UVM_INFO ../alu_passive_mon.sv(156) @ 135: uvm_test_top.env_h.agent_p_h.mon_pass_h [alu_monitor] 4opa=111,opb=190,res=1, cout=z, cmd=3,mode=0, cin=0, inp_valid=1
# time=135 output assertion success 
# 
# UVM_INFO ../alu_passive_mon.sv(156) @ 145: uvm_test_top.env_h.agent_p_h.mon_pass_h [alu_monitor] 4opa=111,opb=190,res=0, cout=z, cmd=3,mode=0, cin=0, inp_valid=1
# UVM_INFO ../sb.sv(248) @ 145: uvm_test_top.env_h.scoreboard_h [scoreboard] 12 opa=1101111,opb=10111110,res=0,cmd=3,mode=0, cin=0, inp_valid=1
# UVM_INFO ../driver.sv(91) @ 145: uvm_test_top.env_h.agent_a_h.drv_h [alu_driver] opa=250,opb=26,cmd=4,mode=0,cin=0,inp_valid=1
# time=145 output assertion success 
# 
# UVM_INFO ../alu_passive_mon.sv(156) @ 155: uvm_test_top.env_h.agent_p_h.mon_pass_h [alu_monitor] 4opa=250,opb=26,res=0, cout=z, cmd=4,mode=0, cin=0, inp_valid=1
# time=155 output assertion success 
# 
# UVM_ERROR ../sb.sv(313) @ 165: uvm_test_top.env_h.scoreboard_h [scoreboard] Fail matched expected_res=0,actual_res=0
# UVM_INFO ../alu_passive_mon.sv(156) @ 165: uvm_test_top.env_h.agent_p_h.mon_pass_h [alu_monitor] 4opa=250,opb=26,res=0, cout=z, cmd=4,mode=0, cin=0, inp_valid=1
# time=165 output assertion success 
# 
# UVM_INFO ../alu_passive_mon.sv(156) @ 175: uvm_test_top.env_h.agent_p_h.mon_pass_h [alu_monitor] 4opa=250,opb=26,res=73, cout=z, cmd=4,mode=0, cin=0, inp_valid=1
# UVM_INFO ../sb.sv(248) @ 175: uvm_test_top.env_h.scoreboard_h [scoreboard] 12 opa=11111010,opb=11010,res=0,cmd=4,mode=0, cin=0, inp_valid=1
# UVM_INFO ../driver.sv(91) @ 175: uvm_test_top.env_h.agent_a_h.drv_h [alu_driver] opa=122,opb=74,cmd=5,mode=0,cin=0,inp_valid=0
# time=175 output assertion success 
# 
# UVM_INFO ../alu_passive_mon.sv(156) @ 185: uvm_test_top.env_h.agent_p_h.mon_pass_h [alu_monitor] 4opa=122,opb=74,res=73, cout=z, cmd=5,mode=0, cin=0, inp_valid=0
# time=185 output assertion success 
# 
# UVM_ERROR ../sb.sv(302) @ 195: uvm_test_top.env_h.scoreboard_h [scoreboard] Fail matched expected_res=0,actual_res=73
# UVM_INFO ../alu_passive_mon.sv(156) @ 195: uvm_test_top.env_h.agent_p_h.mon_pass_h [alu_monitor] 4opa=122,opb=74,res=73, cout=z, cmd=5,mode=0, cin=0, inp_valid=0
# UVM_INFO ../alu_passive_mon.sv(156) @ 205: uvm_test_top.env_h.agent_p_h.mon_pass_h [alu_monitor] 4opa=122,opb=74,res=0, cout=z, cmd=5,mode=0, cin=0, inp_valid=0
# UVM_INFO ../driver.sv(91) @ 205: uvm_test_top.env_h.agent_a_h.drv_h [alu_driver] opa=102,opb=172,cmd=6,mode=0,cin=0,inp_valid=1
# UVM_INFO ../alu_passive_mon.sv(156) @ 215: uvm_test_top.env_h.agent_p_h.mon_pass_h [alu_monitor] 4opa=102,opb=172,res=0, cout=z, cmd=6,mode=0, cin=0, inp_valid=1
# UVM_ERROR ../sb.sv(313) @ 225: uvm_test_top.env_h.scoreboard_h [scoreboard] Fail matched expected_res=0,actual_res=0
# UVM_INFO ../alu_passive_mon.sv(156) @ 225: uvm_test_top.env_h.agent_p_h.mon_pass_h [alu_monitor] 4opa=102,opb=172,res=0, cout=z, cmd=6,mode=0, cin=0, inp_valid=1
# time=225 output assertion success 
# 
# UVM_INFO ../alu_passive_mon.sv(156) @ 235: uvm_test_top.env_h.agent_p_h.mon_pass_h [alu_monitor] 4opa=102,opb=172,res=153, cout=z, cmd=6,mode=0, cin=0, inp_valid=1
# UVM_INFO ../sb.sv(248) @ 235: uvm_test_top.env_h.scoreboard_h [scoreboard] 12 opa=1100110,opb=10101100,res=0,cmd=6,mode=0, cin=0, inp_valid=1
# UVM_INFO ../driver.sv(91) @ 235: uvm_test_top.env_h.agent_a_h.drv_h [alu_driver] opa=123,opb=101,cmd=7,mode=0,cin=0,inp_valid=3
# time=235 output assertion success 
# 
# UVM_INFO ../alu_passive_mon.sv(156) @ 245: uvm_test_top.env_h.agent_p_h.mon_pass_h [alu_monitor] 4opa=123,opb=101,res=153, cout=z, cmd=7,mode=0, cin=0, inp_valid=3
# time=245 output assertion success 
# 
# UVM_ERROR ../sb.sv(302) @ 255: uvm_test_top.env_h.scoreboard_h [scoreboard] Fail matched expected_res=0,actual_res=153
# UVM_INFO ../alu_passive_mon.sv(156) @ 255: uvm_test_top.env_h.agent_p_h.mon_pass_h [alu_monitor] 4opa=123,opb=101,res=153, cout=z, cmd=7,mode=0, cin=0, inp_valid=3
# time=255 output assertion success 
# 
# UVM_INFO ../alu_passive_mon.sv(156) @ 265: uvm_test_top.env_h.agent_p_h.mon_pass_h [alu_monitor] 4opa=123,opb=101,res=154, cout=z, cmd=7,mode=0, cin=0, inp_valid=3
# UVM_INFO ../sb.sv(241) @ 265: uvm_test_top.env_h.scoreboard_h [scoreboard] 11 opa=1111011,opb=1100101,res=0,cmd=7,mode=0, cin=0, inp_valid=3
# UVM_INFO ../driver.sv(91) @ 265: uvm_test_top.env_h.agent_a_h.drv_h [alu_driver] opa=218,opb=57,cmd=8,mode=0,cin=0,inp_valid=0
# time=265 output assertion success 
# 
# UVM_INFO ../alu_passive_mon.sv(156) @ 275: uvm_test_top.env_h.agent_p_h.mon_pass_h [alu_monitor] 4opa=218,opb=57,res=154, cout=z, cmd=8,mode=0, cin=0, inp_valid=0
# time=275 output assertion success 
# 
# UVM_ERROR ../sb.sv(302) @ 285: uvm_test_top.env_h.scoreboard_h [scoreboard] Fail matched expected_res=0,actual_res=154
# UVM_INFO ../alu_passive_mon.sv(156) @ 285: uvm_test_top.env_h.agent_p_h.mon_pass_h [alu_monitor] 4opa=218,opb=57,res=154, cout=z, cmd=8,mode=0, cin=0, inp_valid=0
# UVM_INFO ../alu_passive_mon.sv(156) @ 295: uvm_test_top.env_h.agent_p_h.mon_pass_h [alu_monitor] 4opa=218,opb=57,res=0, cout=z, cmd=8,mode=0, cin=0, inp_valid=0
# UVM_INFO ../driver.sv(91) @ 295: uvm_test_top.env_h.agent_a_h.drv_h [alu_driver] opa=127,opb=125,cmd=9,mode=0,cin=0,inp_valid=0
# UVM_INFO ../alu_passive_mon.sv(156) @ 305: uvm_test_top.env_h.agent_p_h.mon_pass_h [alu_monitor] 4opa=127,opb=125,res=0, cout=z, cmd=9,mode=0, cin=0, inp_valid=0
# UVM_ERROR ../sb.sv(313) @ 315: uvm_test_top.env_h.scoreboard_h [scoreboard] Fail matched expected_res=0,actual_res=0
# UVM_INFO ../alu_passive_mon.sv(156) @ 315: uvm_test_top.env_h.agent_p_h.mon_pass_h [alu_monitor] 4opa=127,opb=125,res=0, cout=z, cmd=9,mode=0, cin=0, inp_valid=0
# UVM_INFO ../alu_passive_mon.sv(156) @ 325: uvm_test_top.env_h.agent_p_h.mon_pass_h [alu_monitor] 4opa=127,opb=125,res=0, cout=z, cmd=9,mode=0, cin=0, inp_valid=0
# UVM_INFO ../driver.sv(91) @ 325: uvm_test_top.env_h.agent_a_h.drv_h [alu_driver] opa=193,opb=194,cmd=10,mode=0,cin=0,inp_valid=3
# UVM_INFO ../alu_passive_mon.sv(156) @ 335: uvm_test_top.env_h.agent_p_h.mon_pass_h [alu_monitor] 4opa=193,opb=194,res=0, cout=z, cmd=10,mode=0, cin=0, inp_valid=3
# UVM_ERROR ../sb.sv(313) @ 345: uvm_test_top.env_h.scoreboard_h [scoreboard] Fail matched expected_res=0,actual_res=0
# UVM_INFO ../alu_passive_mon.sv(156) @ 345: uvm_test_top.env_h.agent_p_h.mon_pass_h [alu_monitor] 4opa=193,opb=194,res=0, cout=z, cmd=10,mode=0, cin=0, inp_valid=3
# UVM_INFO ../alu_passive_mon.sv(156) @ 355: uvm_test_top.env_h.agent_p_h.mon_pass_h [alu_monitor] 4opa=193,opb=194,res=97, cout=z, cmd=10,mode=0, cin=0, inp_valid=3
# UVM_INFO ../sb.sv(241) @ 355: uvm_test_top.env_h.scoreboard_h [scoreboard] 11 opa=11000001,opb=11000010,res=0,cmd=10,mode=0, cin=0, inp_valid=3
# UVM_INFO ../driver.sv(91) @ 355: uvm_test_top.env_h.agent_a_h.drv_h [alu_driver] opa=230,opb=109,cmd=11,mode=0,cin=0,inp_valid=0
# UVM_INFO ../alu_passive_mon.sv(156) @ 365: uvm_test_top.env_h.agent_p_h.mon_pass_h [alu_monitor] 4opa=230,opb=109,res=97, cout=z, cmd=11,mode=0, cin=0, inp_valid=0
# UVM_ERROR ../sb.sv(302) @ 375: uvm_test_top.env_h.scoreboard_h [scoreboard] Fail matched expected_res=0,actual_res=97
# UVM_INFO ../alu_passive_mon.sv(156) @ 375: uvm_test_top.env_h.agent_p_h.mon_pass_h [alu_monitor] 4opa=230,opb=109,res=97, cout=z, cmd=11,mode=0, cin=0, inp_valid=0
# UVM_INFO ../alu_passive_mon.sv(156) @ 385: uvm_test_top.env_h.agent_p_h.mon_pass_h [alu_monitor] 4opa=230,opb=109,res=0, cout=z, cmd=11,mode=0, cin=0, inp_valid=0
# UVM_INFO ../driver.sv(91) @ 385: uvm_test_top.env_h.agent_a_h.drv_h [alu_driver] opa=238,opb=208,cmd=12,mode=0,cin=0,inp_valid=3
# UVM_INFO ../alu_passive_mon.sv(156) @ 395: uvm_test_top.env_h.agent_p_h.mon_pass_h [alu_monitor] 4opa=238,opb=208,res=0, cout=z, cmd=12,mode=0, cin=0, inp_valid=3
# UVM_ERROR ../sb.sv(313) @ 405: uvm_test_top.env_h.scoreboard_h [scoreboard] Fail matched expected_res=0,actual_res=0
# UVM_INFO ../alu_passive_mon.sv(156) @ 405: uvm_test_top.env_h.agent_p_h.mon_pass_h [alu_monitor] 4opa=238,opb=208,res=0, cout=z, cmd=12,mode=0, cin=0, inp_valid=3
# time=405 output assertion success 
# 
# time=405 rotation op assertion failure
# 
# UVM_INFO ../alu_passive_mon.sv(156) @ 415: uvm_test_top.env_h.agent_p_h.mon_pass_h [alu_monitor] 4opa=238,opb=208,res=238, cout=z, cmd=12,mode=0, cin=0, inp_valid=3
# UVM_INFO ../sb.sv(241) @ 415: uvm_test_top.env_h.scoreboard_h [scoreboard] 11 opa=11101110,opb=11010000,res=11101110,cmd=12,mode=0, cin=0, inp_valid=3
# UVM_INFO ../driver.sv(91) @ 415: uvm_test_top.env_h.agent_a_h.drv_h [alu_driver] opa=241,opb=239,cmd=13,mode=0,cin=0,inp_valid=3
# time=415 output assertion success 
# 
# time=415 rotation op  assertion success
# 
# UVM_INFO ../alu_passive_mon.sv(156) @ 425: uvm_test_top.env_h.agent_p_h.mon_pass_h [alu_monitor] 4opa=241,opb=239,res=238, cout=z, cmd=13,mode=0, cin=0, inp_valid=3
# time=425 output assertion success 
# 
# time=425 rotation op  assertion success
# 
# UVM_INFO ../sb.sv(300) @ 435: uvm_test_top.env_h.scoreboard_h [scoreboard] result matched expected_res=238,actual_res=238
# UVM_INFO ../alu_passive_mon.sv(156) @ 435: uvm_test_top.env_h.agent_p_h.mon_pass_h [alu_monitor] 4opa=241,opb=239,res=238, cout=z, cmd=13,mode=0, cin=0, inp_valid=3
# time=435 output assertion success 
# 
# time=435 rotation op  assertion success
# 
# UVM_INFO ../alu_passive_mon.sv(156) @ 445: uvm_test_top.env_h.agent_p_h.mon_pass_h [alu_monitor] 4opa=241,opb=239,res=227, cout=z, cmd=13,mode=0, cin=0, inp_valid=3
# UVM_INFO ../sb.sv(241) @ 445: uvm_test_top.env_h.scoreboard_h [scoreboard] 11 opa=11110001,opb=11101111,res=11111,cmd=13,mode=0, cin=0, inp_valid=3
# UVM_INFO ../driver.sv(91) @ 445: uvm_test_top.env_h.agent_a_h.drv_h [alu_driver] opa=234,opb=251,cmd=14,mode=0,cin=0,inp_valid=3
# UVM_INFO ../alu_logical_test.sv(23) @ 445: uvm_test_top [uvm_test_top] end of run phase
# UVM_INFO verilog_src/uvm-1.1d/src/base/uvm_objection.svh(1268) @ 445: reporter [TEST_DONE] 'run' phase is ready to proceed to the 'extract' phase
# 
# --- UVM Report Summary ---
# 
# ** Report counts by severity
# UVM_INFO :   80
# UVM_WARNING :    0
# UVM_ERROR :   13
# UVM_FATAL :    0
# ** Report counts by id
# [ALU_Assertions]     1
# [Questa UVM]     2
# [RNTST]     1
# [TEST_DONE]     1
# [alu_driver]    15
# [alu_monitor]    45
# [scoreboard]    24
# [uvm_test_top]     2
# [uvm_test_top.env_h.agent_a_h.drv_h]     1
# [uvm_test_top.env_h.agent_a_h.seqr_h.log_op_seq_h]     1
# ** Note: $finish    : /tools/mentor/questasim_10.6c/questasim/linux/../verilog_src/uvm-1.1d/src/base/uvm_root.svh(430)
#    Time: 445 ns  Iteration: 61  Instance: /top
# Saving coverage database on exit...
# End time: 14:55:49 on Oct 01,2024, Elapsed time: 0:00:01
# Errors: 0, Warnings: 3
